…
all_media_mentions %>% summarize_all(sd)

## # A tibble: 1 x 11
##    date  name matched_clips all_candidate_c… total_clips pct_of_all_cand…
##   <dbl> <dbl>         <dbl>            <dbl>       <dbl>            <dbl>
## 1  78.7    NA          371.            1541.       6157.           0.0998
## # … with 5 more variables: query.x <dbl>, matched_stories <dbl>,
## #   all_candidate_stories <dbl>, pct_of_all_candidate_stories <dbl>,
## #   query.y <dbl>

all_media_mentions %>% group_by(name) %>% summarize_all(mean)

## # A tibble: 25 x 11
##    name  date       matched_clips all_candidate_c… total_clips pct_of_all_cand…
##    <chr> <date>             <dbl>            <dbl>       <dbl>            <dbl>
##  1 Amy … 2019-05-15          73              3113.      91306.          0.0278 
##  2 Andr… 2019-05-15          31              3113.      91306.          0.00834
##  3 Bern… 2019-05-15         510.             3113.      91306.          0.170  
##  4 Beto… 2019-05-15         207.             3113.      91306.          0.0753 
##  5 Bill… 2019-05-08          45.9            3051.      91096.          0.0147 
##  6 Cory… 2019-05-15         170.             3113.      91306.          0.0592 
##  7 Eliz… 2019-05-15         489.             3113.      91306.          0.171  
##  8 Eric… 2019-04-03          41.5            2849.      89745.          0.0173 
##  9 Jay … 2019-04-24          26.2            3016.      90725.          0.00907
## 10 Joe … 2019-05-15        1330.             3113.      91306.          0.374  
## # … with 15 more rows, and 5 more variables: query.x <dbl>,
## #   matched_stories <dbl>, all_candidate_stories <dbl>,
## #   pct_of_all_candidate_stories <dbl>, query.y <dbl>

all_media_mentions %>% group_by(name) %>% summarize_all(sd)

## # A tibble: 25 x 11
##    name   date matched_clips all_candidate_c… total_clips pct_of_all_cand…
##    <chr> <dbl>         <dbl>            <dbl>       <dbl>            <dbl>
##  1 Amy …  81.8          68.1            1545.       6140.          0.0335 
##  2 Andr…  81.8          38.4            1545.       6140.          0.00889
##  3 Bern…  81.8         296.             1545.       6140.          0.0870 
##  4 Beto…  81.8         200.             1545.       6140.          0.0747 
##  5 Bill…  77.8          52.7            1560.       6219.          0.0144 
##  6 Cory…  81.8         137.             1545.       6140.          0.0427 
##  7 Eliz…  81.8         274.             1545.       6140.          0.0961 
##  8 Eric…  57.6          30.9            1559.       6753.          0.0119 
##  9 Jay …  69.7          32.8            1612.       6481.          0.0116 
## 10 Joe …  81.8         993.             1545.       6140.          0.178  
## # … with 15 more rows, and 5 more variables: query.x <dbl>,
## #   matched_stories <dbl>, all_candidate_stories <dbl>,
## #   pct_of_all_candidate_stories <dbl>, query.y <dbl>
…
